// Jest Snapshot v1, https://goo.gl/fbAQLP

exports[`TopPicks should render component 1`] = `
<div>
  <div
    class="container"
  >
    <div
      class="bgBlock bgBlock"
    />
    <div
      aria-label="Top Pick Products"
      class="topPicks withSubtitle"
      data-gtm-id="topPicks"
    >
      <div
        class="content content"
        data-gtm-id="topPicks"
      >
        <div
          class="wrapperHeadings"
          data-gtm-id="topPicks"
        >
          <div
            class="subtitle"
            data-gtm-id="topPicks"
          >
            COME AND GET IT
          </div>
          <h2
            class="t-header-h1 title"
            data-gtm-id="topPicks"
          >
            TOP PICKS
          </h2>
        </div>
      </div>
      <div
        class="topPicksContainer"
        data-gtm-id="topPicks"
      >
        <div
          class="scrollerContainer itemsWrapper itemsWrapperGrid"
        >
          <button
            aria-label="Previous product"
            class="prevButton button prevButton"
            name="Previous product"
            tabindex="0"
            type="button"
          >
            <span>
              <svg
                aria-hidden="true"
                class="prevIcon"
                focusable="false"
                viewBox="0 0 24 24"
              >
                <path
                  d="M15.41 7.41L14 6l-6 6 6 6 1.41-1.41L10.83 12z"
                />
              </svg>
            </span>
          </button>
          <div
            class="wrapper"
          >
            <div
              class="scrollerList items itemsGrid"
            >
              <div
                aria-label="Product Card"
                class="item itemGrid verticalProductCard verticalProductCardGrid"
                data-gtm-id="topPicksItem-0-Crispy_Fish_Sandwich_Meal"
              >
                <a
                  class="link"
                  href="/menu/top-picks/crispy-fish-sandwich-meal"
                >
                  <picture
                    data-gtm-id="topPicksItem-0-Crispy_Fish_Sandwich_Meal"
                    style="display: flex;"
                  >
                    <source
                      data-gtm-id="topPicksItem-0-Crispy_Fish_Sandwich_Meal"
                      type="image/webp"
                    />
                    <img
                      alt="Meal Fish Crispy"
                      class="itemImage"
                      data-gtm-id="topPicksItem-0-Crispy_Fish_Sandwich_Meal"
                      style="object-fit: contain;"
                    />
                  </picture>
                  <div
                    class="itemDescription"
                    data-gtm-id="topPicksItem-0-Crispy_Fish_Sandwich_Meal"
                  >
                    <span
                      class="text itemName truncate-at-3"
                      data-gtm-id="topPicksItem-0-Crispy_Fish_Sandwich_Meal"
                      title="Crispy Fish Sandwich Meal"
                    >
                      Crispy Fish Sandwich Meal
                    </span>
                    <span
                      aria-label="Product Price"
                      class="t-paragraph-hint caloriesAndPrice wrapper"
                      data-gtm-id="topPicksItem-0-Crispy_Fish_Sandwich_Meal"
                    >
                      
                    </span>
                  </div>
                </a>
                <style>
                  
                .backgroundColor {
                    background-color: #undefined;
                }
            
                </style>
                <div
                  class="itemActions"
                  data-gtm-id="topPicksItem-0-Crispy_Fish_Sandwich_Meal"
                >
                  <span>
                    <div
                      class=""
                      role="progressbar"
                      style="width: 20px; height: 20px;"
                    >
                      <svg
                        viewBox="22 22 44 44"
                      >
                        <circle
                          class=""
                          cx="44"
                          cy="44"
                          fill="none"
                          r="20.2"
                          stroke-width="3.6"
                        />
                      </svg>
                    </div>
                  </span>
                </div>
              </div>
              <div
                aria-label="Product Card"
                class="item itemGrid verticalProductCard verticalProductCardGrid"
                data-gtm-id="topPicksItem-1-Double_Roast_Beef_Meal"
              >
                <a
                  class="link"
                  href="/menu/top-picks/double-roast-beef-meal"
                >
                  <picture
                    data-gtm-id="topPicksItem-1-Double_Roast_Beef_Meal"
                    style="display: flex;"
                  >
                    <source
                      data-gtm-id="topPicksItem-1-Double_Roast_Beef_Meal"
                      type="image/webp"
                    />
                    <img
                      alt="Meals Double Roast Beef"
                      class="itemImage"
                      data-gtm-id="topPicksItem-1-Double_Roast_Beef_Meal"
                      style="object-fit: contain;"
                    />
                  </picture>
                  <div
                    class="itemDescription"
                    data-gtm-id="topPicksItem-1-Double_Roast_Beef_Meal"
                  >
                    <span
                      class="text itemName truncate-at-3"
                      data-gtm-id="topPicksItem-1-Double_Roast_Beef_Meal"
                      title="Double Roast Beef Meal"
                    >
                      Double Roast Beef Meal
                    </span>
                    <span
                      aria-label="Product Price"
                      class="t-paragraph-hint caloriesAndPrice wrapper"
                      data-gtm-id="topPicksItem-1-Double_Roast_Beef_Meal"
                    >
                      
                    </span>
                  </div>
                </a>
                <style>
                  
                .backgroundColor {
                    background-color: #undefined;
                }
            
                </style>
                <div
                  class="itemActions"
                  data-gtm-id="topPicksItem-1-Double_Roast_Beef_Meal"
                >
                  <span>
                    <div
                      class=""
                      role="progressbar"
                      style="width: 20px; height: 20px;"
                    >
                      <svg
                        viewBox="22 22 44 44"
                      >
                        <circle
                          class=""
                          cx="44"
                          cy="44"
                          fill="none"
                          r="20.2"
                          stroke-width="3.6"
                        />
                      </svg>
                    </div>
                  </span>
                </div>
              </div>
            </div>
          </div>
          <button
            aria-label="Next product"
            class="nextButton button nextButton"
            name="Next product"
            tabindex="0"
            type="button"
          >
            <span>
              <svg
                aria-hidden="true"
                class="prevIcon"
                focusable="false"
                viewBox="0 0 24 24"
              >
                <path
                  d="M10 6L8.59 7.41 13.17 12l-4.58 4.59L10 18l6-6z"
                />
              </svg>
            </span>
          </button>
        </div>
      </div>
    </div>
    <style>
      
                .bgBlock {
                    background-image: none;
                    background-color: var(--col--primary1);
                }
                .content {
                    color: var(--col--light);
                }
            
    </style>
  </div>
</div>
`;
