// Jest Snapshot v1, https://goo.gl/fbAQLP

exports[`NumberedList section should render correctly 1`] = `
<div>
  <div
    class="wrapper"
  >
    <div
      class="wrapper"
    >
      <div
        class="bulletHeaderContainer title"
      >
        <div
          class="boxBulletContainer"
        >
          <div
            class="boxBullet"
          />
        </div>
        <h3
          class="text t-header-h2 headerText"
        >
          A Numbered List
        </h3>
      </div>
      <div
        class="listWrapper undefined"
      >
        <p
          class="text description"
        >
          This is a numbered list that we want to use for testing. It's, you know, a list. With numbers. 
        </p>
        <ol
          class="list"
        >
          <li
            class="listItem"
          >
            <p
              class="text itemTitle"
            >
              Section One
            </p>
            <p
              class="text itemDescription"
            >
              This is the first section of the numbered list. It's okay, I guess.
            </p>
          </li>
          <li
            class="listItem"
          >
            <p
              class="text itemTitle"
            >
              Section 2
            </p>
            <p
              class="text itemDescription"
            >
              This is the 2nd item in the numbered list. It's an awful lot like the 1st section. But how different do you expect items in a numbered lists to be?  
            </p>
          </li>
          <li
            class="listItem"
          >
            <p
              class="text itemTitle"
            >
              3rd Section
            </p>
            <p
              class="text itemDescription"
            >
              What are you expecting here? This one is like the other two but it's probably important to make sure things wrap the way they're supposed to by adding more text to this one than it really needs.
            </p>
          </li>
        </ol>
      </div>
    </div>
  </div>
</div>
`;
