{
    "toggleFeatures": {
        "showLocationsAsOrderedList": {
            "enabled": true,
            "description": "Shows locations on the search page as an ordered list"
        },
        "account": {
            "enabled": false,
            "description": "My Account functionality"
        },
        "signUpPhoneTooltip": {
            "enabled": true,
            "description": "Show additional notification for required phone field on the sign-up screen"
        },
        "isDeliveryEnabled": {
            "enabled": false,
            "description": "Enables delivery flow"
        },
        "locationSpecificMenuCategories": {
            "enabled": true
        },
        "rewards": {
            "enabled": false,
            "description": "Rewards (Epsilon) functionality"
        },
        "locationPages": {
            "enabled": true,
            "description": "Enables locations related page showing"
        },
        "localTapList": {
            "enabled": true,
            "description": "Enables local tap list"
        },
        "shoppingBagLocationSelect": {
            "enabled": true,
            "description": "Enable Location Select component on the Shopping Bag"
        },
        "locationTimeSlotsEnabled": {
            "enabled": true,
            "description": "Enable Time slots in Location header"
        },
        "customerPaymentMethod": {
            "enabled": false,
            "description": "Enable Customer Payment Methods"
        },
        "placeholderPaymentOption": {
            "enabled": true,
            "description": "Show placeholder option in payment info in checkout page"
        },
        "orderHistory": {
            "enabled": false,
            "description": "Enable Account Order History page"
        },
        "isTippingEnabled": {
            "enabled": false,
            "description": "Enable tips on the checkout page"
        },
        "isDineTimeEnabled": {
            "enabled": true,
            "description": "Enable DineTime widget on Location details page"
        },
        "isOpenTableEnabled": {
            "enabled": true,
            "description": "Enable OpenTable widget on Location details page"
        },
        "isGooglePayEnabled": {
            "enabled": false,
            "description": "Enable Google pay option on checkout"
        },
        "isApplePayEnabled": {
            "enabled": false,
            "description": "Enable Apple pay option on checkout"
        },
        "personalization": {
            "enabled": true,
            "description": "Enable components personalization"
        },
        "isOAEnabled": {
            "enabled": true,
            "description": "Enable Order ahead flow"
        },
        "isFraudCheckEnabled": {
            "enabled": true,
            "description": "Enable Fraud check for checkout"
        },
        "isPlayExperienceEnabled": {
            "enabled": true,
            "description": "Enable Play experience page"
        },
        "isDineInOrdersEnabled": {
            "enabled": false,
            "description": "Enables Contactless Pay"
        },
        "isCaloriesDisplayEnabled": {
            "enabled": false,
            "description": "Enable displaying calories"
        },
        "isGiftCardPayEnabled": {
            "enabled": false,
            "description": "Enable Gift Card pay option on checkout"
        },
        "isCreditOrDebitPayEnabled": {
            "enabled": false,
            "description": "Enable Credit or Debit pay option on checkout"
        },
        "isSavedCreditCardPayEnabled": {
            "enabled": false,
            "description": "Enable Saved Credit Card pay option on checkout"
        },
        "isMarketingPreferencesSignupEnabled": {
            "enabled": false,
            "description": "Enable customer to opt in for marketing promotions"
        }
    }
}
