// Jest Snapshot v1, https://goo.gl/fbAQLP

exports[`selectBwwOnSideSauces should select sauces with "on side" options and "no sauce" option 1`] = `
Array [
  Object {
    "defaultQuantity": 0,
    "itemId": "IDPModifier-13635",
    "max": 1,
    "min": 0,
    "overridePrice": Object {
      "currentPrice": 0,
    },
    "sequence": 99,
  },
  Object {
    "defaultQuantity": 0,
    "itemId": "IDPModifier-25386-OS",
    "max": 1,
    "metadata": Object {
      "MODIFIER_EXCEPTION_CASE": "ModifierGroup-12903;Modifier-4036",
      "SOURCE_PRODUCT_ID": "Modifier-25386",
    },
    "min": 0,
    "overridePrice": Object {
      "currentPrice": 0,
    },
    "sequence": 51,
  },
  Object {
    "defaultQuantity": 0,
    "itemId": "IDPModifier-17252-OS",
    "max": 1,
    "metadata": Object {
      "MODIFIER_EXCEPTION_CASE": "ModifierGroup-12903;Modifier-4036",
      "SOURCE_PRODUCT_ID": "Modifier-17252",
    },
    "min": 0,
    "overridePrice": Object {
      "currentPrice": 0,
    },
    "sequence": 47,
  },
  Object {
    "defaultQuantity": 0,
    "itemId": "IDPModifier-17242-OS",
    "max": 1,
    "metadata": Object {
      "MODIFIER_EXCEPTION_CASE": "ModifierGroup-12903;Modifier-4036",
      "SOURCE_PRODUCT_ID": "Modifier-17242",
    },
    "min": 0,
    "overridePrice": Object {
      "currentPrice": 0,
    },
    "sequence": 33,
  },
  Object {
    "defaultQuantity": 0,
    "itemId": "IDPModifier-17256-OS",
    "max": 1,
    "metadata": Object {
      "MODIFIER_EXCEPTION_CASE": "ModifierGroup-12903;Modifier-4036",
      "SOURCE_PRODUCT_ID": "Modifier-17256",
    },
    "min": 0,
    "overridePrice": Object {
      "currentPrice": 0,
    },
    "sequence": 44,
  },
  Object {
    "defaultQuantity": 0,
    "itemId": "IDPModifier-17237-OS",
    "max": 1,
    "metadata": Object {
      "MODIFIER_EXCEPTION_CASE": "ModifierGroup-12903;Modifier-4036",
      "SOURCE_PRODUCT_ID": "Modifier-17237",
    },
    "min": 0,
    "overridePrice": Object {
      "currentPrice": 0,
    },
    "sequence": 42,
  },
  Object {
    "defaultQuantity": 0,
    "itemId": "IDPModifier-28387-OS",
    "max": 1,
    "metadata": Object {
      "MODIFIER_EXCEPTION_CASE": "ModifierGroup-12903;Modifier-4036",
      "SOURCE_PRODUCT_ID": "Modifier-28387",
    },
    "min": 0,
    "overridePrice": Object {
      "currentPrice": 0,
    },
    "sequence": 39,
  },
  Object {
    "defaultQuantity": 0,
    "itemId": "IDPModifier-17247-OS",
    "max": 1,
    "metadata": Object {
      "MODIFIER_EXCEPTION_CASE": "ModifierGroup-12903;Modifier-4036",
      "SOURCE_PRODUCT_ID": "Modifier-17247",
    },
    "min": 0,
    "overridePrice": Object {
      "currentPrice": 0,
    },
    "sequence": 29,
  },
  Object {
    "defaultQuantity": 0,
    "itemId": "IDPModifier-17243-OS",
    "max": 1,
    "metadata": Object {
      "MODIFIER_EXCEPTION_CASE": "ModifierGroup-12903;Modifier-4036",
      "SOURCE_PRODUCT_ID": "Modifier-17243",
    },
    "min": 0,
    "overridePrice": Object {
      "currentPrice": 0,
    },
    "sequence": 32,
  },
  Object {
    "defaultQuantity": 0,
    "itemId": "IDPModifier-25242-OS",
    "max": 1,
    "metadata": Object {
      "MODIFIER_EXCEPTION_CASE": "ModifierGroup-12903;Modifier-4036",
      "SOURCE_PRODUCT_ID": "Modifier-25242",
    },
    "min": 0,
    "overridePrice": Object {
      "currentPrice": 0,
    },
    "sequence": 52,
  },
  Object {
    "defaultQuantity": 0,
    "itemId": "IDPModifier-17236-OS",
    "max": 1,
    "metadata": Object {
      "MODIFIER_EXCEPTION_CASE": "ModifierGroup-12903;Modifier-4036",
      "SOURCE_PRODUCT_ID": "Modifier-17236",
    },
    "min": 0,
    "overridePrice": Object {
      "currentPrice": 0,
    },
    "sequence": 43,
  },
  Object {
    "defaultQuantity": 0,
    "itemId": "IDPModifier-17253-OS",
    "max": 1,
    "metadata": Object {
      "MODIFIER_EXCEPTION_CASE": "ModifierGroup-12903;Modifier-4036",
      "SOURCE_PRODUCT_ID": "Modifier-17253",
    },
    "min": 0,
    "overridePrice": Object {
      "currentPrice": 0,
    },
    "sequence": 46,
  },
  Object {
    "defaultQuantity": 0,
    "itemId": "IDPModifier-28386-OS",
    "max": 1,
    "metadata": Object {
      "MODIFIER_EXCEPTION_CASE": "ModifierGroup-12903;Modifier-4036",
      "SOURCE_PRODUCT_ID": "Modifier-28386",
    },
    "min": 0,
    "overridePrice": Object {
      "currentPrice": 0,
    },
    "sequence": 37,
  },
  Object {
    "defaultQuantity": 0,
    "itemId": "IDPModifier-17244-OS",
    "max": 1,
    "metadata": Object {
      "MODIFIER_EXCEPTION_CASE": "ModifierGroup-12903;Modifier-4036",
      "SOURCE_PRODUCT_ID": "Modifier-17244",
    },
    "min": 0,
    "overridePrice": Object {
      "currentPrice": 0,
    },
    "sequence": 31,
  },
  Object {
    "defaultQuantity": 0,
    "itemId": "IDPModifier-17250-OS",
    "max": 1,
    "metadata": Object {
      "MODIFIER_EXCEPTION_CASE": "ModifierGroup-12903;Modifier-4036",
      "SOURCE_PRODUCT_ID": "Modifier-17250",
    },
    "min": 0,
    "overridePrice": Object {
      "currentPrice": 0,
    },
    "sequence": 49,
  },
  Object {
    "defaultQuantity": 0,
    "itemId": "IDPModifier-17248-OS",
    "max": 1,
    "metadata": Object {
      "MODIFIER_EXCEPTION_CASE": "ModifierGroup-12903;Modifier-4036",
      "SOURCE_PRODUCT_ID": "Modifier-17248",
    },
    "min": 0,
    "overridePrice": Object {
      "currentPrice": 0,
    },
    "sequence": 28,
  },
  Object {
    "defaultQuantity": 0,
    "itemId": "IDPModifier-17240-OS",
    "max": 1,
    "metadata": Object {
      "MODIFIER_EXCEPTION_CASE": "ModifierGroup-12903;Modifier-4036",
      "SOURCE_PRODUCT_ID": "Modifier-17240",
    },
    "min": 0,
    "overridePrice": Object {
      "currentPrice": 0,
    },
    "sequence": 34,
  },
  Object {
    "defaultQuantity": 0,
    "itemId": "IDPModifier-17239-OS",
    "max": 1,
    "metadata": Object {
      "MODIFIER_EXCEPTION_CASE": "ModifierGroup-12903;Modifier-4036",
      "SOURCE_PRODUCT_ID": "Modifier-17239",
    },
    "min": 0,
    "overridePrice": Object {
      "currentPrice": 0,
    },
    "sequence": 40,
  },
  Object {
    "defaultQuantity": 0,
    "itemId": "IDPModifier-23662-OS",
    "max": 1,
    "metadata": Object {
      "MODIFIER_EXCEPTION_CASE": "ModifierGroup-12903;Modifier-4036",
      "SOURCE_PRODUCT_ID": "Modifier-23662",
    },
    "min": 0,
    "overridePrice": Object {
      "currentPrice": 0,
    },
    "sequence": 50,
  },
  Object {
    "defaultQuantity": 0,
    "itemId": "IDPModifier-24346-OS",
    "max": 1,
    "metadata": Object {
      "MODIFIER_EXCEPTION_CASE": "ModifierGroup-12903;Modifier-4036",
      "SOURCE_PRODUCT_ID": "Modifier-24346",
    },
    "min": 0,
    "overridePrice": Object {
      "currentPrice": 0,
    },
    "sequence": 35,
  },
  Object {
    "defaultQuantity": 0,
    "itemId": "IDPModifier-17249-OS",
    "max": 1,
    "metadata": Object {
      "MODIFIER_EXCEPTION_CASE": "ModifierGroup-12903;Modifier-4036",
      "SOURCE_PRODUCT_ID": "Modifier-17249",
    },
    "min": 0,
    "overridePrice": Object {
      "currentPrice": 0,
    },
    "sequence": 27,
  },
  Object {
    "defaultQuantity": 0,
    "itemId": "IDPModifier-17251-OS",
    "max": 1,
    "metadata": Object {
      "MODIFIER_EXCEPTION_CASE": "ModifierGroup-12903;Modifier-4036",
      "SOURCE_PRODUCT_ID": "Modifier-17251",
    },
    "min": 0,
    "overridePrice": Object {
      "currentPrice": 0,
    },
    "sequence": 48,
  },
  Object {
    "defaultQuantity": 0,
    "itemId": "IDPModifier-17245-OS",
    "max": 1,
    "metadata": Object {
      "MODIFIER_EXCEPTION_CASE": "ModifierGroup-12903;Modifier-4036",
      "SOURCE_PRODUCT_ID": "Modifier-17245",
    },
    "min": 0,
    "overridePrice": Object {
      "currentPrice": 0,
    },
    "sequence": 30,
  },
  Object {
    "defaultQuantity": 0,
    "itemId": "IDPModifier-31609-OS",
    "max": 1,
    "metadata": Object {
      "MODIFIER_EXCEPTION_CASE": "ModifierGroup-12903;Modifier-4036",
      "SOURCE_PRODUCT_ID": "Modifier-31609",
    },
    "min": 0,
    "overridePrice": Object {
      "currentPrice": 1,
    },
    "sequence": 36,
  },
  Object {
    "defaultQuantity": 0,
    "itemId": "IDPModifier-17238-OS",
    "max": 1,
    "metadata": Object {
      "MODIFIER_EXCEPTION_CASE": "ModifierGroup-12903;Modifier-4036",
      "SOURCE_PRODUCT_ID": "Modifier-17238",
    },
    "min": 0,
    "overridePrice": Object {
      "currentPrice": 0,
    },
    "sequence": 41,
  },
  Object {
    "defaultQuantity": 0,
    "itemId": "IDPModifier-17255-OS",
    "max": 1,
    "metadata": Object {
      "MODIFIER_EXCEPTION_CASE": "ModifierGroup-12903;Modifier-4036",
      "SOURCE_PRODUCT_ID": "Modifier-17255",
    },
    "min": 0,
    "overridePrice": Object {
      "currentPrice": 0,
    },
    "sequence": 45,
  },
  Object {
    "defaultQuantity": 0,
    "itemId": "IDPModifier-28388-OS",
    "max": 1,
    "metadata": Object {
      "MODIFIER_EXCEPTION_CASE": "ModifierGroup-12903;Modifier-4036",
      "SOURCE_PRODUCT_ID": "Modifier-28388",
    },
    "min": 0,
    "overridePrice": Object {
      "currentPrice": 0,
    },
    "sequence": 38,
  },
]
`;
