// Jest Snapshot v1, https://goo.gl/fbAQLP

exports[`selectBwwNewModifiersGroups should select modifier groups (no sauce case) 1`] = `
Array [
  Object {
    "modifiers": Array [],
    "productId": "IDPModifierGroup-0001",
  },
  Object {
    "modifiers": Array [],
    "productId": "IDPModifierGroup-0002",
  },
  Object {
    "modifiers": Array [],
    "productId": "IDPModifierGroup-0003",
  },
  Object {
    "isOnSideChecked": false,
    "isOnSideOptionDisabled": true,
    "modifiers": Array [
      Object {
        "modifierGroups": undefined,
        "price": null,
        "productId": "IDPModifier-16411",
        "quantity": 1,
      },
    ],
    "productId": "IDPModifierGroup-12305",
  },
  Object {
    "modifiers": Array [
      Object {
        "price": 0,
        "productId": "IDPModifier-23901",
        "quantity": 1,
      },
    ],
    "productId": "IDPModifierGroup-14295",
  },
  Object {
    "modifiers": Array [
      Object {
        "price": 0,
        "productId": "IDPModifier-5874",
        "quantity": 1,
      },
    ],
    "productId": "IDPModifierGroup-16051",
  },
  Object {
    "modifiers": Array [
      Object {
        "price": 0,
        "productId": "IDPModifier-3697",
        "quantity": 1,
      },
    ],
    "productId": "IDPModifierGroup-9124",
  },
]
`;

exports[`selectBwwNewModifiersGroups should select modifier groups 1`] = `
Array [
  Object {
    "modifiers": Array [],
    "productId": "IDPModifierGroup-0001",
  },
  Object {
    "modifiers": Array [],
    "productId": "IDPModifierGroup-0002",
  },
  Object {
    "modifiers": Array [],
    "productId": "IDPModifierGroup-0003",
  },
  Object {
    "modifiers": Array [
      Object {
        "modifierGroups": undefined,
        "price": null,
        "productId": "IDPModifier-16411",
        "quantity": 1,
      },
      Object {
        "modifierGroups": undefined,
        "price": null,
        "productId": "IDPModifier-16410",
        "quantity": 1,
      },
      Object {
        "modifierGroups": undefined,
        "price": null,
        "productId": "IDPModifier-16409",
        "quantity": 1,
      },
      Object {
        "modifierGroups": undefined,
        "price": null,
        "productId": "IDPModifier-17317",
        "quantity": 1,
      },
      Object {
        "modifierGroups": undefined,
        "price": null,
        "productId": "IDPModifier-16414",
        "quantity": 1,
      },
      Object {
        "modifierGroups": undefined,
        "price": null,
        "productId": "IDPModifier-27449",
        "quantity": 1,
      },
    ],
    "productId": "IDPModifierGroup-12305",
  },
  Object {
    "modifiers": Array [
      Object {
        "price": 0,
        "productId": "IDPModifier-23901",
        "quantity": 1,
      },
    ],
    "productId": "IDPModifierGroup-14295",
  },
  Object {
    "modifiers": Array [
      Object {
        "price": 0,
        "productId": "IDPModifier-5874",
        "quantity": 1,
      },
    ],
    "productId": "IDPModifierGroup-16051",
  },
  Object {
    "modifiers": Array [
      Object {
        "price": 0,
        "productId": "IDPModifier-3697",
        "quantity": 1,
      },
    ],
    "productId": "IDPModifierGroup-9124",
  },
]
`;
