// Jest Snapshot v1, https://goo.gl/fbAQLP

exports[`ModifiersSelection should render component with modifiers 1`] = `
<div>
  <div
    class="container"
  >
    <div
      class="seletionHeader headerWrapper"
    >
      <div
        class="titleWrapper"
      >
        <h2
          class="title t-header-card-title"
        >
          sauce selection
        </h2>
        <span
          class="count t-paragraph-hint"
        >
          (Select one)
        </span>
        <button
          class="link linkButton linkSecondaryActive viewAllButton"
          type="button"
        >
          View All
        </button>
      </div>
    </div>
    <div
      class="productListWrapper"
    >
      <div
        class="productCard container"
        tabindex="0"
      >
        <div
          class="contentWrapper"
        >
          <span
            aria-disabled="false"
            class="radioButton radioButton standard"
          >
            <span>
              <input
                aria-label="Select Swiss"
                tabindex="-1"
                type="radio"
                value="Modifier-3751"
              />
              <span
                class="icon"
              />
            </span>
          </span>
          <div
            class="textContentWrapper"
          >
            <p
              class="text productName productTitle"
            >
              Swiss
            </p>
            
            <span
              aria-label="Product Price and Calories"
              class="priceAndCalories t-paragraph-hint wrapper"
            >
              Calorie info unavailable
            </span>
          </div>
        </div>
      </div>
      <div
        class="productCard container"
        tabindex="0"
      >
        <div
          class="contentWrapper"
        >
          <span
            aria-disabled="false"
            class="radioButton radioButton standard"
          >
            <span>
              <input
                aria-label="Select Bleu Cheese Crumbles"
                checked=""
                tabindex="-1"
                type="radio"
                value="Modifier-3697"
              />
              <span
                class="icon checkedIcon"
              />
            </span>
          </span>
          <div
            class="textContentWrapper"
          >
            <p
              class="text productName productTitle"
            >
              Bleu Cheese Crumbles
            </p>
            
            <span
              aria-label="Product Price and Calories"
              class="priceAndCalories t-paragraph-hint wrapper"
            >
              Calorie info unavailable
            </span>
          </div>
        </div>
      </div>
      <div
        class="productCard container"
        tabindex="0"
      >
        <div
          class="contentWrapper"
        >
          <span
            aria-disabled="false"
            class="radioButton radioButton standard"
          >
            <span>
              <input
                aria-label="Select Cheddar"
                tabindex="-1"
                type="radio"
                value="Modifier-3752"
              />
              <span
                class="icon"
              />
            </span>
          </span>
          <div
            class="textContentWrapper"
          >
            <p
              class="text productName productTitle"
            >
              Cheddar
            </p>
            
            <span
              aria-label="Product Price and Calories"
              class="priceAndCalories t-paragraph-hint wrapper"
            >
              Calorie info unavailable
            </span>
          </div>
        </div>
      </div>
      <button
        class="viewAllCard container"
        type="button"
      >
        <div
          class="iconWrapper"
        >
          <img
            alt=""
            class="icon"
            src="/brands/inspire/add-icon.svg"
          />
        </div>
        <div
          class="text productTitle"
        >
          View All sauce selection
        </div>
      </button>
    </div>
  </div>
</div>
`;
