// Jest Snapshot v1, https://goo.gl/fbAQLP

exports[`rewards roster header should render correctly with error state 1`] = `
<div>
  <div
    aria-label="Rewards Roster Page"
    class="wrapper"
    id="main-content"
  >
    <div
      class="header"
    >
      <h1
        class="t-header-h1 headerText"
      >
        rewards roster
      </h1>
      <span
        class="t-paragraph-small subHeaderText"
      >
        Points balance not available
      </span>
    </div>
    <div
      class="wrapper container"
    >
      
      <div
        class="container"
      />
    </div>
  </div>
</div>
`;

exports[`rewards roster header should render correctly with loading state 1`] = `
<div>
  <div
    aria-label="Rewards Roster Page"
    class="wrapper"
    id="main-content"
  >
    <div
      class="header"
    >
      <h1
        class="t-header-h1 headerText"
      >
        rewards roster
      </h1>
      <span
        class="t-paragraph-small subHeaderText"
      >
        Checking points balance…
      </span>
    </div>
    <div
      class="wrapper container"
    >
      
      <div
        class="container"
      />
    </div>
  </div>
</div>
`;

exports[`rewards roster header should render correctly with points 1`] = `
<div>
  <div
    aria-label="Rewards Roster Page"
    class="wrapper"
    id="main-content"
  >
    <div
      class="header"
    >
      <h1
        class="t-header-h1 headerText"
      >
        rewards roster
      </h1>
      <span
        class="t-paragraph-small subHeaderText"
      >
        1,500 pts available
      </span>
    </div>
    <div
      class="wrapper container"
    >
      
      <div
        class="container"
      />
    </div>
  </div>
</div>
`;
