// Jest Snapshot v1, https://goo.gl/fbAQLP

exports[`LocationsList should render component 1`] = `
<div
  className="container"
>
  <LocationsListItem
    isCurrentLocation={false}
    key="5398"
    location={
      Object {
        "brandName": "Arby's",
        "contactDetails": Object {
          "address": Object {
            "city": "Chardon",
            "countryCode": "US",
            "line1": "417 Water St",
            "line2": "",
            "line3": "",
            "postalCode": "44024",
            "stateProvinceCode": "OH",
          },
          "email": "",
          "phone": "(440) 286-7515",
        },
        "details": Object {
          "latitude": 41.5804712,
          "longitude": -81.2104162,
        },
        "displayName": "Chardon – Water St",
        "distance": Object {
          "amount": 0,
          "unit": "mi",
        },
        "id": "5398",
        "services": Array [
          Object {
            "hours": Array [
              Object {
                "dayOfWeek": "SUNDAY",
                "endTime": "22:00",
                "isTwentyFourHourService": null,
                "startTime": "10:00",
              },
              Object {
                "dayOfWeek": "MONDAY",
                "endTime": "23:00",
                "isTwentyFourHourService": null,
                "startTime": "10:00",
              },
              Object {
                "dayOfWeek": "TUESDAY",
                "endTime": "23:00",
                "isTwentyFourHourService": null,
                "startTime": "10:00",
              },
              Object {
                "dayOfWeek": "WEDNESDAY",
                "endTime": "23:00",
                "isTwentyFourHourService": null,
                "startTime": "10:00",
              },
              Object {
                "dayOfWeek": "THURSDAY",
                "endTime": "23:00",
                "isTwentyFourHourService": null,
                "startTime": "10:00",
              },
              Object {
                "dayOfWeek": "FRIDAY",
                "endTime": "00:00",
                "isTwentyFourHourService": null,
                "startTime": "10:00",
              },
              Object {
                "dayOfWeek": "SATURDAY",
                "endTime": "00:00",
                "isTwentyFourHourService": null,
                "startTime": "10:00",
              },
            ],
            "type": "PICKUP",
          },
          Object {
            "hours": Array [
              Object {
                "dayOfWeek": "SUNDAY",
                "endTime": "22:00",
                "isTwentyFourHourService": null,
                "startTime": "10:00",
              },
              Object {
                "dayOfWeek": "MONDAY",
                "endTime": "23:00",
                "isTwentyFourHourService": null,
                "startTime": "10:00",
              },
              Object {
                "dayOfWeek": "TUESDAY",
                "endTime": "23:00",
                "isTwentyFourHourService": null,
                "startTime": "10:00",
              },
              Object {
                "dayOfWeek": "WEDNESDAY",
                "endTime": "23:00",
                "isTwentyFourHourService": null,
                "startTime": "10:00",
              },
              Object {
                "dayOfWeek": "THURSDAY",
                "endTime": "23:00",
                "isTwentyFourHourService": null,
                "startTime": "10:00",
              },
              Object {
                "dayOfWeek": "FRIDAY",
                "endTime": "00:00",
                "isTwentyFourHourService": null,
                "startTime": "10:00",
              },
              Object {
                "dayOfWeek": "SATURDAY",
                "endTime": "00:00",
                "isTwentyFourHourService": null,
                "startTime": "10:00",
              },
            ],
            "type": "STORE",
          },
          Object {
            "hours": Array [
              Object {
                "dayOfWeek": "SUNDAY",
                "endTime": "22:00",
                "isTwentyFourHourService": null,
                "startTime": "10:00",
              },
              Object {
                "dayOfWeek": "MONDAY",
                "endTime": "23:00",
                "isTwentyFourHourService": null,
                "startTime": "10:00",
              },
              Object {
                "dayOfWeek": "TUESDAY",
                "endTime": "23:00",
                "isTwentyFourHourService": null,
                "startTime": "10:00",
              },
              Object {
                "dayOfWeek": "WEDNESDAY",
                "endTime": "23:00",
                "isTwentyFourHourService": null,
                "startTime": "10:00",
              },
              Object {
                "dayOfWeek": "THURSDAY",
                "endTime": "23:00",
                "isTwentyFourHourService": null,
                "startTime": "10:00",
              },
              Object {
                "dayOfWeek": "FRIDAY",
                "endTime": "00:00",
                "isTwentyFourHourService": null,
                "startTime": "10:00",
              },
              Object {
                "dayOfWeek": "SATURDAY",
                "endTime": "00:00",
                "isTwentyFourHourService": null,
                "startTime": "10:00",
              },
            ],
            "type": "DELIVERY",
          },
        ],
        "timezone": "America/New_York",
      }
    }
    onLocationSelect={[MockFunction]}
    onLocationSet={[MockFunction]}
    selected={false}
  />
  <LocationsListItem
    isCurrentLocation={false}
    key="99982"
    location={
      Object {
        "brandName": "Arby's",
        "contactDetails": Object {
          "address": Object {
            "city": "CHARDON",
            "countryCode": "US",
            "line1": "417 WATER ST",
            "line2": "",
            "line3": "",
            "postalCode": "44024",
            "stateProvinceCode": "OH",
          },
          "email": "a05398@arbysstores.com",
          "phone": "440-286-7515",
        },
        "details": Object {
          "latitude": 41.5805,
          "longitude": -81.2104,
        },
        "displayName": "5398, Unit",
        "distance": Object {
          "amount": 0.0021575615615117803,
          "unit": "mi",
        },
        "id": "99982",
        "isDigitallyEnabled": true,
        "services": Array [
          Object {
            "hours": Array [
              Object {
                "dayOfWeek": "SUNDAY",
                "endTime": "22:00",
                "isTwentyFourHourService": false,
                "startTime": "10:00",
              },
              Object {
                "dayOfWeek": "MONDAY",
                "endTime": "23:00",
                "isTwentyFourHourService": false,
                "startTime": "10:00",
              },
              Object {
                "dayOfWeek": "TUESDAY",
                "endTime": "23:00",
                "isTwentyFourHourService": false,
                "startTime": "10:00",
              },
              Object {
                "dayOfWeek": "WEDNESDAY",
                "endTime": "23:00",
                "isTwentyFourHourService": false,
                "startTime": "10:00",
              },
              Object {
                "dayOfWeek": "THURSDAY",
                "endTime": "23:00",
                "isTwentyFourHourService": false,
                "startTime": "10:00",
              },
              Object {
                "dayOfWeek": "FRIDAY",
                "endTime": "23:00",
                "isTwentyFourHourService": false,
                "startTime": "10:00",
              },
              Object {
                "dayOfWeek": "SATURDAY",
                "endTime": "23:00",
                "isTwentyFourHourService": false,
                "startTime": "10:00",
              },
            ],
            "type": "ORDER_AHEAD",
          },
        ],
        "status": "OPEN",
        "timezone": "America/New_York",
      }
    }
    onLocationSelect={[MockFunction]}
    onLocationSet={[MockFunction]}
    selected={false}
  />
</div>
`;

exports[`LocationsList should render component with view more button 1`] = `
<ViewMoreButton
  isLoading={false}
  onClick={[MockFunction]}
/>
`;

exports[`LocationsList should render with view all locations link 1`] = `<AllLocationsLink />`;
