{
    "method": "PICKUP",
    "pickupAddress": {
        "id": "1",
        "brandName": "Buffalo Wild Wings",
        "displayName": "Image Lab 9016",
        "status": "OPEN",
        "timezone": "America/Chicago",
        "isDigitallyEnabled": true,
        "distance": {
            "unit": "mi"
        },
        "contactDetails": {
            "address": {
                "line1": "4140 West Broadway",
                "line2": "",
                "line3": "",
                "postalCode": "55422",
                "stateProvinceCode": "MN",
                "countryCode": "US",
                "city": "Robbinsdale"
            },
            "phone": "763-533-2758"
        },
        "services": [
            {
                "type": "ORDER_AHEAD",
                "hours": [
                    {
                        "dayOfWeek": "SUNDAY",
                        "startTime": "11:00",
                        "endTime": "00:00",
                        "isTwentyFourHourService": false
                    },
                    {
                        "dayOfWeek": "MONDAY",
                        "startTime": "11:00",
                        "endTime": "00:00",
                        "isTwentyFourHourService": false
                    },
                    {
                        "dayOfWeek": "TUESDAY",
                        "startTime": "11:00",
                        "endTime": "00:00",
                        "isTwentyFourHourService": false
                    },
                    {
                        "dayOfWeek": "WEDNESDAY",
                        "startTime": "11:00",
                        "endTime": "00:00",
                        "isTwentyFourHourService": false
                    },
                    {
                        "dayOfWeek": "THURSDAY",
                        "startTime": "11:00",
                        "endTime": "00:00",
                        "isTwentyFourHourService": false
                    },
                    {
                        "dayOfWeek": "FRIDAY",
                        "startTime": "11:00",
                        "endTime": "00:00",
                        "isTwentyFourHourService": false
                    },
                    {
                        "dayOfWeek": "SATURDAY",
                        "startTime": "11:00",
                        "endTime": "00:00",
                        "isTwentyFourHourService": false
                    }
                ]
            },
            {
                "type": "PICKUP",
                "hours": [
                    {
                        "dayOfWeek": "SUNDAY",
                        "startTime": "11:00",
                        "endTime": "00:00",
                        "isTwentyFourHourService": false
                    },
                    {
                        "dayOfWeek": "MONDAY",
                        "startTime": "11:00",
                        "endTime": "00:00",
                        "isTwentyFourHourService": false
                    },
                    {
                        "dayOfWeek": "TUESDAY",
                        "startTime": "11:00",
                        "endTime": "00:00",
                        "isTwentyFourHourService": false
                    },
                    {
                        "dayOfWeek": "WEDNESDAY",
                        "startTime": "11:00",
                        "endTime": "00:00",
                        "isTwentyFourHourService": false
                    },
                    {
                        "dayOfWeek": "THURSDAY",
                        "startTime": "11:00",
                        "endTime": "00:00",
                        "isTwentyFourHourService": false
                    },
                    {
                        "dayOfWeek": "FRIDAY",
                        "startTime": "11:00",
                        "endTime": "00:00",
                        "isTwentyFourHourService": false
                    },
                    {
                        "dayOfWeek": "SATURDAY",
                        "startTime": "11:00",
                        "endTime": "00:00",
                        "isTwentyFourHourService": false
                    }
                ]
            },
            {
                "type": "STORE",
                "hours": [
                    {
                        "dayOfWeek": "SUNDAY",
                        "startTime": "11:00",
                        "endTime": "00:00",
                        "isTwentyFourHourService": false
                    },
                    {
                        "dayOfWeek": "MONDAY",
                        "startTime": "11:00",
                        "endTime": "00:00",
                        "isTwentyFourHourService": false
                    },
                    {
                        "dayOfWeek": "TUESDAY",
                        "startTime": "11:00",
                        "endTime": "00:00",
                        "isTwentyFourHourService": false
                    },
                    {
                        "dayOfWeek": "WEDNESDAY",
                        "startTime": "11:00",
                        "endTime": "00:00",
                        "isTwentyFourHourService": false
                    },
                    {
                        "dayOfWeek": "THURSDAY",
                        "startTime": "11:00",
                        "endTime": "00:00",
                        "isTwentyFourHourService": false
                    },
                    {
                        "dayOfWeek": "FRIDAY",
                        "startTime": "11:00",
                        "endTime": "00:00",
                        "isTwentyFourHourService": false
                    },
                    {
                        "dayOfWeek": "SATURDAY",
                        "startTime": "11:00",
                        "endTime": "00:00",
                        "isTwentyFourHourService": false
                    }
                ]
            }
        ],
        "details": {
            "latitude": 45.0306435,
            "longitude": -93.3383719
        },
        "additionalFeatures": {}
    },
    "deliveryAddress": null
}
