// Jest Snapshot v1, https://goo.gl/fbAQLP

exports[`withCertificatesSectionLayout should render correctly the component returned by withCertificatesSectionLayout 1`] = `
<div>
  <div
    class="wrapper-with-background-image certificatesSectionLayout"
  >
    <div
      class="titleBlock"
    >
      <h2
        class="t-header-h1 sectionHeading"
      >
        <span
          class="t-subheader"
        >
          recommended
        </span>
        <span
          class="m-block-treatment m-block-treatment-md"
        >
          <span
            class="m-block-treatment-title"
          >
            just
            <br />
             
            for you
          </span>
        </span>
      </h2>
    </div>
    <div>
      Test Component
    </div>
  </div>
  <style>
    
                .wrapper-with-background-image {
                    background-image: url("/brands/bww/recommended-just-for-you.png"), linear-gradient(#e3e1db 70%, #fff 70%);
                }
            
  </style>
</div>
`;
