// Jest Snapshot v1, https://goo.gl/fbAQLP

exports[`BrandLoader should render BrandLoader with className 1`] = `
<div
  aria-label="progressbar"
  className="container testBrandLoader"
  role="progressbar"
>
  <div
    className="icons"
  >
    <BrandIcon
      className="icon"
      icon="logo"
    />
    <BrandIcon
      className="icon"
      icon="logo"
    />
  </div>
</div>
`;

exports[`BrandLoader should render BrandLoader without props 1`] = `
<div
  aria-label="progressbar"
  className="container"
  role="progressbar"
>
  <div
    className="icons"
  >
    <BrandIcon
      className="icon"
      icon="logo"
    />
    <BrandIcon
      className="icon"
      icon="logo"
    />
  </div>
</div>
`;
