// Jest Snapshot v1, https://goo.gl/fbAQLP

exports[`PaymentInfo should match snapshot 1`] = `
<PaymentInfo
  innnerHtml={
    Object {
      "__html": "iframePayload",
    }
  }
  isActive={true}
  onFormStatusChange={
    [MockFunction] {
      "calls": Array [
        Array [
          false,
        ],
      ],
      "results": Array [
        Object {
          "type": "return",
          "value": undefined,
        },
      ],
    }
  }
  paymentPayload={
    Object {
      "payment": Object {},
    }
  }
  paymentType="CREDIT_OR_DEBIT"
>
  <div
    aria-label="Payment Info"
    className="paymentInfo"
  >
    <div
      className="formWrapper"
    >
      <Formik
        initialValues={
          Object {
            "chFirstName": "",
            "chLastName": "",
          }
        }
        onSubmit={[Function]}
        validateOnMount={true}
      >
        <Form
          className="formContainer formContainerActive"
        >
          <form
            action="#"
            className="formContainer formContainerActive"
            onReset={[Function]}
            onSubmit={[Function]}
          >
            <FormikInput
              inputClassName="inputControl"
              label="Cardholder First Name"
              labelClassName="inputLabel"
              maxLength={70}
              name="chFirstName"
              placeholder="Enter Cardholder First Name"
              type="text"
              validate={[Function]}
            >
              <div
                className="inputGroup"
              >
                <label
                  className="inputLabel inputLabel"
                  htmlFor="chFirstName"
                >
                  Cardholder First Name
                </label>
                <div>
                  <Input
                    className="inputControl inputControl"
                    id="chFirstName"
                    maxLength={70}
                    name="chFirstName"
                    onBlur={[Function]}
                    onChange={[Function]}
                    onKeyPress={[Function]}
                    placeholder="Enter Cardholder First Name"
                    type="text"
                    value=""
                  >
                    <input
                      className="inputControl inputControl"
                      id="chFirstName"
                      maxLength={70}
                      name="chFirstName"
                      onBlur={[Function]}
                      onChange={[Function]}
                      onKeyPress={[Function]}
                      placeholder="Enter Cardholder First Name"
                      type="text"
                      value=""
                    />
                  </Input>
                </div>
              </div>
            </FormikInput>
            <FormikInput
              inputClassName="inputControl"
              label="Cardholder Last Name"
              labelClassName="inputLabel"
              maxLength={70}
              name="chLastName"
              placeholder="Enter Cardholder Last Name"
              type="text"
              validate={[Function]}
            >
              <div
                className="inputGroup"
              >
                <label
                  className="inputLabel inputLabel"
                  htmlFor="chLastName"
                >
                  Cardholder Last Name
                </label>
                <div>
                  <Input
                    className="inputControl inputControl"
                    id="chLastName"
                    maxLength={70}
                    name="chLastName"
                    onBlur={[Function]}
                    onChange={[Function]}
                    onKeyPress={[Function]}
                    placeholder="Enter Cardholder Last Name"
                    type="text"
                    value=""
                  >
                    <input
                      className="inputControl inputControl"
                      id="chLastName"
                      maxLength={70}
                      name="chLastName"
                      onBlur={[Function]}
                      onChange={[Function]}
                      onKeyPress={[Function]}
                      placeholder="Enter Cardholder Last Name"
                      type="text"
                      value=""
                    />
                  </Input>
                </div>
              </div>
            </FormikInput>
            <Component
              onChange={[Function]}
            />
          </form>
        </Form>
      </Formik>
      <div
        className="paymentContainer"
        dangerouslySetInnerHTML={
          Object {
            "__html": "iframePayload",
          }
        }
        style={
          Object {
            "height": "480px",
          }
        }
      />
      <div
        aria-disabled={true}
        aria-label="Pay Button Overlay"
        className="paymentOverlay"
      />
    </div>
    <div
      className="termsContainer"
    >
      <input
        checked={false}
        className="checkbox"
        id="terms"
        onChange={[Function]}
        type="checkbox"
      />
      <Checkbox
        ariaLabel="Terms and Conditions"
        fieldName="terms"
        onClick={[Function]}
        onKeyUp={[Function]}
        selected={false}
      >
        <div
          aria-checked={false}
          aria-label="Terms and Conditions"
          className="checkbox standard"
          onClick={[Function]}
          onKeyUp={[Function]}
          role="checkbox"
          tabIndex={0}
        >
          <CheckIcon
            className="checkIcon"
          >
            <WithStyles(ForwardRef(SvgIcon))
              className="checkIcon"
            >
              <ForwardRef(SvgIcon)
                className="checkIcon"
                classes={Object {}}
              >
                <svg
                  aria-hidden={true}
                  className="checkIcon"
                  focusable="false"
                  viewBox="0 0 24 24"
                >
                  <path
                    d="M9 16.17L4.83 12l-1.42 1.41L9 19 21 7l-1.41-1.41z"
                  />
                </svg>
              </ForwardRef(SvgIcon)>
            </WithStyles(ForwardRef(SvgIcon))>
          </CheckIcon>
        </div>
      </Checkbox>
      <TermsLabel
        className="terms"
        htmlFor="terms"
      >
        <label
          className="t-paragraph-hint terms"
          htmlFor="terms"
        >
          By clicking "PAY", you authorize the Arby’s location listed to charge your credit card for the full amount and you agree to Arby’s 
          <Link
            href="/terms-of-use"
          >
            <a
              className="termsLink"
              href="/terms-of-use"
              onClick={[Function]}
              onMouseEnter={[Function]}
              target="_blank"
            >
              Terms & Conditions
            </a>
          </Link>
           and 
          <Link
            href="/privacy-policy"
          >
            <a
              className="termsLink"
              href="/privacy-policy"
              onClick={[Function]}
              onMouseEnter={[Function]}
              target="_blank"
            >
              Privacy Policy
            </a>
          </Link>
          .
        </label>
      </TermsLabel>
    </div>
  </div>
</PaymentInfo>
`;

exports[`PaymentInfo should show loader 1`] = `
<PaymentInfo
  innnerHtml={
    Object {
      "__html": "iframePayload",
    }
  }
  isActive={true}
  onFormStatusChange={[MockFunction]}
  paymentPayload={Object {}}
  paymentType="CREDIT_OR_DEBIT"
>
  <div
    className="paymentLoader"
  >
    <Loader
      size={20}
    >
      <WithStyles(ForwardRef(CircularProgress))
        classes={
          Object {
            "root": "loader",
          }
        }
        size={20}
      >
        <ForwardRef(CircularProgress)
          classes={Object {}}
          size={20}
        >
          <div
            className=""
            role="progressbar"
            style={
              Object {
                "height": 20,
                "width": 20,
              }
            }
          >
            <svg
              viewBox="22 22 44 44"
            >
              <circle
                className=""
                cx={44}
                cy={44}
                fill="none"
                r={20.2}
                strokeWidth={3.6}
                style={Object {}}
              />
            </svg>
          </div>
        </ForwardRef(CircularProgress)>
      </WithStyles(ForwardRef(CircularProgress))>
    </Loader>
  </div>
</PaymentInfo>
`;
