// Jest Snapshot v1, https://goo.gl/fbAQLP

exports[`SignIn component should match desc snapshot 1`] = `
<div>
  <div
    class="signInContainer"
  >
    <div
      class="signInButton"
      data-gtm-id="topNav_signin"
      tabindex="0"
    >
      <div
        class="signInIconWrapper"
      >
        <span
          class="brand-icon navigation-user iconContainer m signInIcon"
        />
      </div>
      <div
        class="accountInfoContaner"
      >
        <span
          class="truncate signInText isAuthenticated"
        >
          Hi johndoe
        </span>
        <span
          class="brand-icon direction-down iconContainer tiny chevronIcon"
        />
        <div
          class="t-paragraph-hint rewardsInfo"
        />
      </div>
    </div>
    <div
      class="divider"
    />
    <div
      class="menuContent"
    >
      <div
        class="itemContainer"
      >
        <a
          class="accountMenulink t-paragraph-small-strong"
          data-gtm-id="accountProfile"
          href="/account"
          tabindex="0"
        >
          PROFILE
        </a>
      </div>
      <div
        class="itemContainer"
      >
        <a
          class="accountMenulink t-paragraph-small-strong"
          data-gtm-id="accountDeals"
          href="/account/deals"
          tabindex="0"
        >
          DEALS
        </a>
      </div>
      <div
        class="itemContainer"
      >
        <a
          class="accountMenulink t-paragraph-small-strong"
          data-gtm-id="accountRewards"
          href="/account/rewards"
          tabindex="0"
        >
          Rewards
        </a>
      </div>
      <div
        class="itemContainer"
      >
        <a
          class="accountMenulink t-paragraph-small-strong"
          data-gtm-id="accountMy_teams"
          href="/account/my-teams"
          tabindex="0"
        >
          My Teams
        </a>
      </div>
      <div
        class="horizontalDivider"
      />
      <button
        class="logoutButton logoutButton"
        data-gtm-id="accountLogout"
      >
        Logout
      </button>
    </div>
  </div>
</div>
`;

exports[`SignIn component should match loading snapshot 1`] = `
<div>
  <div
    class=""
    role="progressbar"
    style="width: 20px; height: 20px;"
  >
    <svg
      viewBox="22 22 44 44"
    >
      <circle
        class=""
        cx="44"
        cy="44"
        fill="none"
        r="20.2"
        stroke-width="3.6"
      />
    </svg>
  </div>
</div>
`;

exports[`SignIn component should match mobile snapshot 1`] = `
<div>
  <div
    class="signInContainer"
  >
    <div
      class="signInButton"
      data-gtm-id="topNav_signin"
      tabindex="0"
    >
      <div
        class="signInIconWrapper"
      >
        <span
          class="brand-icon navigation-user iconContainer m signInIcon"
        />
      </div>
      <div
        class="accountInfoContaner"
      >
        <span
          class="truncate signInText isAuthenticated"
        >
          Hi johndoe
        </span>
        <span
          class="brand-icon direction-down iconContainer tiny chevronIcon"
        />
      </div>
    </div>
    <div
      class="divider"
    />
    <div
      class="menuContent"
    >
      <button
        class=""
        tabindex="0"
        type="button"
      >
        <span>
          <span
            class=""
          >
            <svg
              aria-hidden="true"
              class=""
              focusable="false"
              viewBox="0 0 24 24"
            >
              <path
                d="M19 6.41L17.59 5 12 10.59 6.41 5 5 6.41 10.59 12 5 17.59 6.41 19 12 13.41 17.59 19 19 17.59 13.41 12z"
              />
            </svg>
          </span>
          Close
        </span>
        <span
          class=""
        />
      </button>
      <div
        class="dropdownSignInSection"
      >
        <div
          class="wrapperDropdownSignIn"
        >
          <div>
            <div
              class="signInIconWrapper"
            >
              <span
                class="brand-icon navigation-user iconContainer m signInIcon"
              />
            </div>
          </div>
          <span
            class="signInText dropdownSignInText"
          >
            <span>
              Hi johndoe
            </span>
             
            <span
              class="t-paragraph-small rewardsInfoMobile"
            />
          </span>
        </div>
      </div>
      <div
        class="itemContainer"
      >
        <a
          class="accountMenulink t-subheader-small"
          data-gtm-id="accountProfile"
          href="/account"
          tabindex="0"
        >
          PROFILE
        </a>
      </div>
      <div
        class="itemContainer"
      >
        <a
          class="accountMenulink t-subheader-small"
          data-gtm-id="accountDeals"
          href="/account/deals"
          tabindex="0"
        >
          DEALS
        </a>
      </div>
      <div
        class="itemContainer"
      >
        <a
          class="accountMenulink t-subheader-small"
          data-gtm-id="accountRewards"
          href="/account/rewards"
          tabindex="0"
        >
          Rewards
        </a>
      </div>
      <div
        class="itemContainer"
      >
        <a
          class="accountMenulink t-subheader-small"
          data-gtm-id="accountMy_teams"
          href="/account/my-teams"
          tabindex="0"
        >
          My Teams
        </a>
      </div>
      <div
        class="horizontalDivider"
      />
      <button
        class="logoutButton logoutButton"
        data-gtm-id="accountLogout"
      >
        Logout
      </button>
    </div>
  </div>
</div>
`;

exports[`SignIn component should match not authorized snapshot 1`] = `
<div>
  <div
    class="signInContainer"
  >
    <div
      class="signInButton"
      data-gtm-id="topNav_signin"
      tabindex="0"
    >
      <div
        class="signInIconWrapper"
      >
        <span
          class="brand-icon navigation-user iconContainer m signInIcon"
        />
      </div>
      <div
        class="accountInfoContaner"
      >
        <span
          class="truncate signInText notAuthenticated"
        >
          Sign In
        </span>
      </div>
    </div>
    <div
      class="divider"
    />
  </div>
</div>
`;
