// Jest Snapshot v1, https://goo.gl/fbAQLP

exports[`brand icon component should match snapshot with custom className 1`] = `
<div>
  <span
    class="brand-icon Bag iconContainer m custom-className"
  />
</div>
`;

exports[`brand icon component should match snapshot with custom size 1`] = `
<div>
  <span
    class="brand-icon Bag iconContainer l"
  />
</div>
`;

exports[`brand icon component should match snapshot with default props 1`] = `
<div>
  <span
    class="brand-icon Bag iconContainer m"
  />
</div>
`;

exports[`brand icon component should pass colorful className to span element when light variant prop is passed 1`] = `
<div>
  <span
    class="brand-icon colorful Bag iconContainer m colorful"
  />
</div>
`;

exports[`brand icon component should pass light className to span element when light variant prop is passed 1`] = `
<div>
  <span
    class="brand-icon light Bag iconContainer m light"
  />
</div>
`;
