// Jest Snapshot v1, https://goo.gl/fbAQLP

exports[`InspireSimpleLink component should match snapshot 1`] = `
<div>
  <a
    class="link"
    href="/test"
  >
    /test
  </a>
</div>
`;

exports[`InspireSimpleLink component should match snapshot with children 1`] = `
<div>
  <a
    class="link"
    href="/test"
  >
    children
  </a>
</div>
`;

exports[`InspireSimpleLink component should match snapshot with className 1`] = `
<div>
  <a
    class="link className"
    href="/test"
  >
    /test
  </a>
</div>
`;

exports[`InspireSimpleLink component should match snapshot with phone link 1`] = `
<div>
  <a
    class="link"
    href="tel:+10001000"
  >
    +10001000
  </a>
</div>
`;
