// Jest Snapshot v1, https://goo.gl/fbAQLP

exports[`DeliveryLocationAutocomplete component should render DeliveryLocationAutocomplete properly 1`] = `
<div>
  <div
    aria-expanded="false"
    class=""
    role="combobox"
  >
    <div
      class="searchInputContainer"
    >
      <div
        class="searchInputRightBlock"
      >
        <span
          class="brand-icon nav-location iconContainer s"
        />
        <div
          class=""
        >
          <input
            aria-autocomplete="list"
            aria-label="Delivery Address Input"
            autocapitalize="none"
            autocomplete="off"
            class=""
            disabled=""
            id="deliveryAutocompleteInput"
            placeholder="Enter Delivery Address"
            spellcheck="false"
            type="text"
            value=""
          />
        </div>
      </div>
      <button
        aria-label="Enter delivery address"
        class=""
        tabindex="0"
        type="button"
      >
        <span>
          <svg
            aria-hidden="true"
            class=""
            focusable="false"
            viewBox="0 0 24 24"
          >
            <path
              d="M15.5 14h-.79l-.28-.27C15.41 12.59 16 11.11 16 9.5 16 5.91 13.09 3 9.5 3S3 5.91 3 9.5 5.91 16 9.5 16c1.61 0 3.09-.59 4.23-1.57l.27.28v.79l5 4.99L20.49 19l-4.99-5zm-6 0C7.01 14 5 11.99 5 9.5S7.01 5 9.5 5 14 7.01 14 9.5 11.99 14 9.5 14z"
            />
          </svg>
        </span>
        <span
          class=""
        />
      </button>
    </div>
  </div>
</div>
`;
