<svg width="76" height="64" viewBox="0 0 76 64" fill="none" xmlns="http://www.w3.org/2000/svg">
<path fill-rule="evenodd" clip-rule="evenodd" d="M75.9996 17H0V62C0 63.1046 0.895428 64 1.99999 64H73.9996C75.1042 64 75.9996 63.1046 75.9996 62V17ZM44.9607 37.1426V33H40.8865V37.1426H44.9607ZM34.7205 37.1426V33H30.6463V37.1426H34.7205ZM51.1267 45.687C49.1944 44.3015 47.3897 43.2488 45.7127 42.5287C43.2517 41.4623 40.7726 40.9291 38.2752 40.9291C35.5317 40.9291 32.7427 41.5626 29.9081 42.8295C28.3221 43.5405 27.1281 44.2104 26.326 44.8393L24.9999 45.81V48.6948C27.1691 47.4916 28.9465 46.6531 30.3319 46.1791C32.6743 45.3679 35.2401 44.9623 38.0291 44.9623C39.8156 44.9623 41.4653 45.1082 42.9783 45.3998C45.2843 45.8465 47.49 46.644 49.5955 47.7924L51.1267 48.6264V45.687Z" fill="#D71920"/>
<path fill-rule="evenodd" clip-rule="evenodd" d="M1.99999 0C0.895426 0 0 0.89543 0 2V14H75.9996V2C75.9996 0.895431 75.1042 0 73.9996 0H1.99999ZM7.99996 5C6.8954 5 5.99997 5.89543 5.99997 7C5.99997 8.10457 6.8954 9 7.99996 9C9.10452 9 9.99995 8.10457 9.99995 7C9.99995 5.89543 9.10452 5 7.99996 5ZM11.9999 7C11.9999 5.89543 12.8954 5 13.9999 5C15.1045 5 15.9999 5.89543 15.9999 7C15.9999 8.10457 15.1045 9 13.9999 9C12.8954 9 11.9999 8.10457 11.9999 7ZM19.9999 5C18.8953 5 17.9999 5.89543 17.9999 7C17.9999 8.10457 18.8953 9 19.9999 9C21.1045 9 21.9999 8.10457 21.9999 7C21.9999 5.89543 21.1045 5 19.9999 5Z" fill="#D71920"/>
</svg>
