// Jest Snapshot v1, https://goo.gl/fbAQLP

exports[`NotFoundScreen should render component 1`] = `
<div>
  <div
    class="idleScreen"
  >
    <div
      class="container notFound"
    >
      <img
        alt=""
        class="icon"
        src="/brands/arbys/warning.svg"
      />
      <p
        class="text t-paragraph"
      >
        We apologize. Online ordering is not available at this moment.
      </p>
    </div>
  </div>
</div>
`;
