{
  "sys": {
    "space": {
      "sys": {
        "type": "Link",
        "linkType": "Space",
        "id": "o19mhvm9a2cm"
      }
    },
    "id": "errorBanner",
    "type": "ContentType",
    "createdAt": "2021-01-12T12:09:52.130Z",
    "updatedAt": "2021-04-21T11:28:14.510Z",
    "environment": {
      "sys": {
        "id": "feature_DBBP-24031",
        "type": "Link",
        "linkType": "Environment"
      }
    },
    "publishedVersion": 7,
    "publishedAt": "2021-04-21T11:28:14.510Z",
    "firstPublishedAt": "2021-01-12T12:09:52.794Z",
    "createdBy": {
      "sys": {
        "type": "Link",
        "linkType": "User",
        "id": "3JdV1YTSKtVvuIoZebMfw6"
      }
    },
    "updatedBy": {
      "sys": {
        "type": "Link",
        "linkType": "User",
        "id": "7oNRM1Uit9TzNhu4Pc1Uz0"
      }
    },
    "publishedCounter": 4,
    "version": 8,
    "publishedBy": {
      "sys": {
        "type": "Link",
        "linkType": "User",
        "id": "7oNRM1Uit9TzNhu4Pc1Uz0"
      }
    }
  },
  "displayField": "mainText",
  "name": "Error Banner",
  "description": "Error Banner content model",
  "fields": [
    {
      "id": "mainText",
      "name": "Main Text",
      "type": "Text",
      "localized": false,
      "required": false,
      "validations": [],
      "disabled": false,
      "omitted": false
    },
    {
      "id": "mainImage",
      "name": "Main Image",
      "type": "Link",
      "localized": false,
      "required": false,
      "validations": [],
      "disabled": false,
      "omitted": false,
      "linkType": "Asset"
    },
    {
      "id": "errorCodeText",
      "name": "Error Code Text",
      "type": "Symbol",
      "localized": false,
      "required": false,
      "validations": [],
      "disabled": false,
      "omitted": false
    },
    {
      "id": "headerText",
      "name": "Header Text",
      "type": "Symbol",
      "localized": false,
      "required": false,
      "validations": [],
      "disabled": false,
      "omitted": false
    },
    {
      "id": "homePageText",
      "name": "Home Page Text",
      "type": "Symbol",
      "localized": false,
      "required": false,
      "validations": [],
      "disabled": false,
      "omitted": false
    }
  ]
}