{
  "sys": {
    "space": {
      "sys": {
        "type": "Link",
        "linkType": "Space",
        "id": "o19mhvm9a2cm"
      }
    },
    "id": "externalLink",
    "type": "ContentType",
    "createdAt": "2020-08-27T18:23:14.617Z",
    "updatedAt": "2021-05-31T07:15:10.872Z",
    "environment": {
      "sys": {
        "id": "dev",
        "type": "Link",
        "linkType": "Environment"
      }
    },
    "publishedVersion": 9,
    "publishedAt": "2021-05-31T07:15:10.872Z",
    "firstPublishedAt": "2020-08-27T18:23:15.047Z",
    "createdBy": {
      "sys": {
        "type": "Link",
        "linkType": "User",
        "id": "6swOFtFCrShVpvJGDeM5t2"
      }
    },
    "updatedBy": {
      "sys": {
        "type": "Link",
        "linkType": "User",
        "id": "3JdV1YTSKtVvuIoZebMfw6"
      }
    },
    "publishedCounter": 5,
    "version": 10,
    "publishedBy": {
      "sys": {
        "type": "Link",
        "linkType": "User",
        "id": "3JdV1YTSKtVvuIoZebMfw6"
      }
    }
  },
  "displayField": "name",
  "name": "External Link",
  "description": "",
  "fields": [
    {
      "id": "name",
      "name": "Name",
      "type": "Symbol",
      "localized": false,
      "required": true,
      "validations": [],
      "disabled": false,
      "omitted": false
    },
    {
      "id": "nameInUrl",
      "name": "url",
      "type": "Symbol",
      "localized": false,
      "required": true,
      "validations": [
        {
          "regexp": {
            "pattern": "^(ftp|http|https):\\/\\/(\\w+:{0,1}\\w*@)?(\\S+)(:[0-9]+)?(\\/|\\/([\\w#!:.?+=&%@!\\-/]))?$",
            "flags": null
          },
          "message": "Must be a full external url.  If you want to link internally use the page instead."
        }
      ],
      "disabled": false,
      "omitted": false
    }
  ]
}