{
    "sys": {
        "space": {
            "sys": {
                "type": "Link",
                "linkType": "Space",
                "id": "l5fkpck1mwg3"
            }
        },
        "id": "locationNewsTile",
        "type": "ContentType",
        "createdAt": "2021-09-13T08:14:05.014Z",
        "updatedAt": "2021-09-13T08:14:05.629Z",
        "environment": {
            "sys": {
                "id": "dev",
                "type": "Link",
                "linkType": "Environment"
            }
        },
        "publishedVersion": 1,
        "publishedAt": "2021-09-13T08:14:05.629Z",
        "firstPublishedAt": "2021-09-13T08:14:05.629Z",
        "createdBy": {
            "sys": {
                "type": "Link",
                "linkType": "User",
                "id": "6GES9nueuSHl3tfuA9w6nk"
            }
        },
        "updatedBy": {
            "sys": {
                "type": "Link",
                "linkType": "User",
                "id": "6GES9nueuSHl3tfuA9w6nk"
            }
        },
        "publishedCounter": 1,
        "version": 2,
        "publishedBy": {
            "sys": {
                "type": "Link",
                "linkType": "User",
                "id": "6GES9nueuSHl3tfuA9w6nk"
            }
        }
    },
    "displayField": "header",
    "name": "Location news tile",
    "description": "content of location news tile\n",
    "fields": [
        {
            "id": "header",
            "name": "header",
            "type": "Symbol",
            "localized": false,
            "required": true,
            "validations": [],
            "disabled": false,
            "omitted": false
        },
        {
            "id": "description",
            "name": "description",
            "type": "Text",
            "localized": false,
            "required": false,
            "validations": [],
            "disabled": false,
            "omitted": false
        },
        {
            "id": "type",
            "name": "type",
            "type": "Symbol",
            "localized": false,
            "required": false,
            "validations": [],
            "disabled": false,
            "omitted": false
        },
        {
            "id": "item",
            "name": "item",
            "type": "Symbol",
            "localized": false,
            "required": false,
            "validations": [],
            "disabled": false,
            "omitted": false
        },
        {
            "id": "icon",
            "name": "icon",
            "type": "Link",
            "localized": false,
            "required": true,
            "validations": [],
            "disabled": false,
            "omitted": false,
            "linkType": "Asset"
        }
    ]
}
