{
  "sys": {
    "space": {
      "sys": {
        "type": "Link",
        "linkType": "Space",
        "id": "o19mhvm9a2cm"
      }
    },
    "id": "menuSubcategory",
    "type": "ContentType",
    "createdAt": "2020-09-03T16:09:55.761Z",
    "updatedAt": "2020-09-03T16:10:18.417Z",
    "environment": {
      "sys": {
        "id": "master",
        "type": "Link",
        "linkType": "Environment"
      }
    },
    "publishedVersion": 3,
    "publishedAt": "2020-09-03T16:10:18.417Z",
    "firstPublishedAt": "2020-09-03T16:09:56.008Z",
    "createdBy": {
      "sys": {
        "type": "Link",
        "linkType": "User",
        "id": "6swOFtFCrShVpvJGDeM5t2"
      }
    },
    "updatedBy": {
      "sys": {
        "type": "Link",
        "linkType": "User",
        "id": "6swOFtFCrShVpvJGDeM5t2"
      }
    },
    "publishedCounter": 2,
    "version": 4,
    "publishedBy": {
      "sys": {
        "type": "Link",
        "linkType": "User",
        "id": "6swOFtFCrShVpvJGDeM5t2"
      }
    }
  },
  "displayField": "name",
  "name": "Menu Subcategory",
  "description": "",
  "fields": [
    {
      "id": "name",
      "name": "Name",
      "type": "Symbol",
      "localized": false,
      "required": true,
      "validations": [],
      "disabled": false,
      "omitted": false
    },
    {
      "id": "products",
      "name": "Products",
      "type": "Array",
      "localized": false,
      "required": false,
      "validations": [],
      "disabled": false,
      "omitted": false,
      "items": {
        "type": "Link",
        "validations": [
          {
            "linkContentType": [
              "product"
            ]
          }
        ],
        "linkType": "Entry"
      }
    }
  ]
}