{
    "sys": {
        "space": {
            "sys": {
                "type": "Link",
                "linkType": "Space",
                "id": "l5fkpck1mwg3"
            }
        },
        "id": "productNutritionLink",
        "type": "ContentType",
        "createdAt": "2021-07-08T19:15:13.950Z",
        "updatedAt": "2021-07-08T19:15:14.275Z",
        "environment": {
            "sys": {
                "id": "dev",
                "type": "Link",
                "linkType": "Environment"
            }
        },
        "publishedVersion": 1,
        "publishedAt": "2021-07-08T19:15:14.275Z",
        "firstPublishedAt": "2021-07-08T19:15:14.275Z",
        "createdBy": {
            "sys": {
                "type": "Link",
                "linkType": "User",
                "id": "3JdV1YTSKtVvuIoZebMfw6"
            }
        },
        "updatedBy": {
            "sys": {
                "type": "Link",
                "linkType": "User",
                "id": "3JdV1YTSKtVvuIoZebMfw6"
            }
        },
        "publishedCounter": 1,
        "version": 2,
        "publishedBy": {
            "sys": {
                "type": "Link",
                "linkType": "User",
                "id": "3JdV1YTSKtVvuIoZebMfw6"
            }
        }
    },
    "displayField": "text",
    "name": "Product Nutrition Link",
    "description": "",
    "fields": [
        {
            "id": "text",
            "name": "Text",
            "type": "Symbol",
            "localized": false,
            "required": false,
            "validations": [],
            "disabled": false,
            "omitted": false
        },
        {
            "id": "link",
            "name": "Link",
            "type": "Link",
            "localized": false,
            "required": true,
            "validations": [
                {
                    "linkContentType": ["documentLink", "externalLink", "pageLink"]
                }
            ],
            "disabled": false,
            "omitted": false,
            "linkType": "Entry"
        }
    ]
}
