{
  "sys": {
    "space": {
      "sys": {
        "type": "Link",
        "linkType": "Space",
        "id": "o19mhvm9a2cm"
      }
    },
    "id": "productModifier",
    "type": "ContentType",
    "createdAt": "2020-08-06T15:26:58.774Z",
    "updatedAt": "2020-10-13T12:55:43.486Z",
    "environment": {
      "sys": {
        "id": "master",
        "type": "Link",
        "linkType": "Environment"
      }
    },
    "publishedVersion": 91,
    "publishedAt": "2020-10-13T12:55:43.486Z",
    "firstPublishedAt": "2020-08-06T15:27:06.985Z",
    "createdBy": {
      "sys": {
        "type": "Link",
        "linkType": "User",
        "id": "3Y86O0dXMyYmRQX2khsBty"
      }
    },
    "updatedBy": {
      "sys": {
        "type": "Link",
        "linkType": "User",
        "id": "6swOFtFCrShVpvJGDeM5t2"
      }
    },
    "publishedCounter": 46,
    "version": 92,
    "publishedBy": {
      "sys": {
        "type": "Link",
        "linkType": "User",
        "id": "6swOFtFCrShVpvJGDeM5t2"
      }
    }
  },
  "displayField": "name",
  "name": "Product Modifier",
  "description": "Product modifier",
  "fields": [
    {
      "id": "name",
      "name": "Name",
      "type": "Symbol",
      "localized": false,
      "required": true,
      "validations": [],
      "disabled": false,
      "omitted": false
    },
    {
      "id": "productId",
      "name": "productId",
      "type": "Symbol",
      "localized": false,
      "required": false,
      "validations": [],
      "disabled": false,
      "omitted": false
    },
    {
      "id": "image",
      "name": "Image",
      "type": "Link",
      "localized": false,
      "required": false,
      "validations": [
        {
          "assetImageDimensions": {
            "width": {
              "min": 4000,
              "max": 4000
            },
            "height": {
              "min": 3000,
              "max": 3000
            }
          },
          "message": "Image must be 4000px wide and 3000px tall."
        }
      ],
      "disabled": false,
      "omitted": false,
      "linkType": "Asset"
    }
  ]
}