{
  "sys": {
    "space": {
      "sys": {
        "type": "Link",
        "linkType": "Space",
        "id": "o19mhvm9a2cm"
      }
    },
    "id": "promoBlockSection",
    "type": "ContentType",
    "createdAt": "2020-12-01T13:15:19.573Z",
    "updatedAt": "2020-12-01T13:26:20.817Z",
    "environment": {
      "sys": {
        "id": "dev",
        "type": "Link",
        "linkType": "Environment"
      }
    },
    "publishedVersion": 3,
    "publishedAt": "2020-12-01T13:26:20.817Z",
    "firstPublishedAt": "2020-12-01T13:15:20.028Z",
    "createdBy": {
      "sys": {
        "type": "Link",
        "linkType": "User",
        "id": "06zA3t4CcEIqr0KHqWKZ96"
      }
    },
    "updatedBy": {
      "sys": {
        "type": "Link",
        "linkType": "User",
        "id": "6swOFtFCrShVpvJGDeM5t2"
      }
    },
    "publishedCounter": 2,
    "version": 4,
    "publishedBy": {
      "sys": {
        "type": "Link",
        "linkType": "User",
        "id": "6swOFtFCrShVpvJGDeM5t2"
      }
    }
  },
  "displayField": "name",
  "name": "Promo Block Section",
  "description": "",
  "fields": [
    {
      "id": "name",
      "name": "Name",
      "type": "Symbol",
      "localized": false,
      "required": false,
      "validations": [],
      "disabled": false,
      "omitted": false
    },
    {
      "id": "cards",
      "name": "Cards",
      "type": "Array",
      "localized": false,
      "required": true,
      "validations": [
        {
          "size": {
            "min": 2,
            "max": 2
          },
          "message": "The section must have 2 cards"
        }
      ],
      "disabled": false,
      "omitted": false,
      "items": {
        "type": "Link",
        "validations": [
          {
            "linkContentType": [
              "promoBlockCard"
            ]
          }
        ],
        "linkType": "Entry"
      }
    },
    {
      "id": "backgroundColor",
      "name": "Background color",
      "type": "Link",
      "localized": false,
      "required": false,
      "validations": [
        {
          "linkContentType": [
            "color"
          ]
        }
      ],
      "disabled": false,
      "omitted": false,
      "linkType": "Entry"
    },
    {
      "id": "titleColor",
      "name": "Title color",
      "type": "Link",
      "localized": false,
      "required": false,
      "validations": [
        {
          "linkContentType": [
            "color"
          ]
        }
      ],
      "disabled": false,
      "omitted": false,
      "linkType": "Entry"
    },
    {
      "id": "descriptionColor",
      "name": "Description color",
      "type": "Link",
      "localized": false,
      "required": false,
      "validations": [
        {
          "linkContentType": [
            "color"
          ]
        }
      ],
      "disabled": false,
      "omitted": false,
      "linkType": "Entry"
    }
  ]
}