{
  "sys": {
    "space": {
      "sys": {
        "type": "Link",
        "linkType": "Space",
        "id": "o19mhvm9a2cm"
      }
    },
    "id": "sectionFlex",
    "type": "ContentType",
    "createdAt": "2020-06-30T15:27:20.401Z",
    "updatedAt": "2020-09-03T16:11:44.100Z",
    "environment": {
      "sys": {
        "id": "master",
        "type": "Link",
        "linkType": "Environment"
      }
    },
    "publishedVersion": 165,
    "publishedAt": "2020-09-03T16:11:44.100Z",
    "firstPublishedAt": "2020-06-30T16:10:30.056Z",
    "createdBy": {
      "sys": {
        "type": "Link",
        "linkType": "User",
        "id": "6swOFtFCrShVpvJGDeM5t2"
      }
    },
    "updatedBy": {
      "sys": {
        "type": "Link",
        "linkType": "User",
        "id": "6swOFtFCrShVpvJGDeM5t2"
      }
    },
    "publishedCounter": 80,
    "version": 166,
    "publishedBy": {
      "sys": {
        "type": "Link",
        "linkType": "User",
        "id": "6swOFtFCrShVpvJGDeM5t2"
      }
    }
  },
  "displayField": "name",
  "name": "Section Flex",
  "description": "",
  "fields": [
    {
      "id": "name",
      "name": "Name",
      "type": "Symbol",
      "localized": false,
      "required": false,
      "validations": [],
      "disabled": false,
      "omitted": false
    },
    {
      "id": "content",
      "name": "Content",
      "type": "Array",
      "localized": false,
      "required": false,
      "validations": [],
      "disabled": false,
      "omitted": false,
      "items": {
        "type": "Link",
        "validations": [
          {
            "linkContentType": [
              "sectionCardFlex"
            ]
          }
        ],
        "linkType": "Entry"
      }
    }
  ]
}