{
    "sys": {
        "space": {
            "sys": {
                "type": "Link",
                "linkType": "Space",
                "id": "l5fkpck1mwg3"
            }
        },
        "id": "topPicks",
        "type": "ContentType",
        "createdAt": "2021-07-08T19:15:32.361Z",
        "updatedAt": "2021-08-12T16:15:56.817Z",
        "environment": {
            "sys": {
                "id": "dev",
                "type": "Link",
                "linkType": "Environment"
            }
        },
        "publishedVersion": 9,
        "publishedAt": "2021-08-12T16:15:56.817Z",
        "firstPublishedAt": "2021-07-08T19:15:32.668Z",
        "createdBy": {
            "sys": {
                "type": "Link",
                "linkType": "User",
                "id": "3JdV1YTSKtVvuIoZebMfw6"
            }
        },
        "updatedBy": {
            "sys": {
                "type": "Link",
                "linkType": "User",
                "id": "6GES9nueuSHl3tfuA9w6nk"
            }
        },
        "publishedCounter": 5,
        "version": 10,
        "publishedBy": {
            "sys": {
                "type": "Link",
                "linkType": "User",
                "id": "6GES9nueuSHl3tfuA9w6nk"
            }
        }
    },
    "displayField": "leftSideMainText",
    "name": "Top Picks",
    "description": "",
    "fields": [
        {
            "id": "leftSideTopText",
            "name": "Left Side Top Text",
            "type": "Symbol",
            "localized": false,
            "required": false,
            "validations": [],
            "disabled": false,
            "omitted": false
        },
        {
            "id": "leftSideMainText",
            "name": "Left Side Main Text",
            "type": "Symbol",
            "localized": false,
            "required": true,
            "validations": [],
            "disabled": false,
            "omitted": false
        },
        {
            "id": "backgroundColor",
            "name": "Background Color",
            "type": "Symbol",
            "localized": false,
            "required": false,
            "validations": [],
            "disabled": false,
            "omitted": false
        },
        {
            "id": "backgroundImage",
            "name": "Background Image",
            "type": "Link",
            "localized": false,
            "required": false,
            "validations": [
                {
                    "linkMimetypeGroup": ["image"]
                },
                {
                    "assetImageDimensions": {
                        "width": {
                            "min": 4000,
                            "max": 4000
                        },
                        "height": {
                            "min": 3000,
                            "max": 3000
                        }
                    },
                    "message": "Image must be 4000px wide and 3000px tall."
                }
            ],
            "disabled": false,
            "omitted": false,
            "linkType": "Asset"
        },
        {
            "id": "textColor",
            "name": "Text Color",
            "type": "Symbol",
            "localized": false,
            "required": false,
            "validations": [],
            "disabled": false,
            "omitted": false
        },
        {
            "id": "isSideScroll",
            "name": "isSideScroll",
            "type": "Boolean",
            "localized": false,
            "required": false,
            "validations": [],
            "disabled": false,
            "omitted": false
        },
        {
            "id": "category",
            "name": "Category",
            "type": "Link",
            "localized": false,
            "required": false,
            "validations": [
                {
                    "linkContentType": ["menuCategory"]
                }
            ],
            "disabled": false,
            "omitted": false,
            "linkType": "Entry"
        },
        {
            "id": "leftSideImage",
            "name": "Left Side Image",
            "type": "Link",
            "localized": false,
            "required": false,
            "validations": [
                {
                    "assetImageDimensions": {
                        "width": {
                            "min": 257,
                            "max": 257
                        },
                        "height": {
                            "min": 195,
                            "max": 195
                        }
                    },
                    "message": "Image must be 257px wide and 195px tall."
                }
            ],
            "disabled": false,
            "omitted": false,
            "linkType": "Asset"
        }
    ]
}
