{
    "sys": {
        "space": {
            "sys": {
                "type": "Link",
                "linkType": "Space",
                "id": "l5fkpck1mwg3"
            }
        },
        "id": "userAccountMenuItemType",
        "type": "ContentType",
        "createdAt": "2021-07-30T07:09:13.206Z",
        "updatedAt": "2021-07-30T07:09:13.864Z",
        "environment": {
            "sys": {
                "id": "dev",
                "type": "Link",
                "linkType": "Environment"
            }
        },
        "publishedVersion": 1,
        "publishedAt": "2021-07-30T07:09:13.864Z",
        "firstPublishedAt": "2021-07-30T07:09:13.864Z",
        "createdBy": {
            "sys": {
                "type": "Link",
                "linkType": "User",
                "id": "6GES9nueuSHl3tfuA9w6nk"
            }
        },
        "updatedBy": {
            "sys": {
                "type": "Link",
                "linkType": "User",
                "id": "6GES9nueuSHl3tfuA9w6nk"
            }
        },
        "publishedCounter": 1,
        "version": 2,
        "publishedBy": {
            "sys": {
                "type": "Link",
                "linkType": "User",
                "id": "6GES9nueuSHl3tfuA9w6nk"
            }
        }
    },
    "displayField": "type",
    "name": "User Account Menu Item Type",
    "description": "",
    "fields": [
        {
            "id": "type",
            "name": "Type",
            "type": "Symbol",
            "localized": false,
            "required": true,
            "validations": [
                {
                    "unique": true
                }
            ],
            "disabled": false,
            "omitted": false
        }
    ]
}
