// Jest Snapshot v1, https://goo.gl/fbAQLP

exports[`PickupInstructions should render PickupInstructions with props 1`] = `
<div
  className="container"
>
  <div
    className="itemWrapper"
    key="Wear a mask when picking up order"
  >
    <p
      className="text"
    >
      Wear a mask when picking up order
    </p>
  </div>
  <div
    className="itemWrapper"
    key="tell the cashier your name"
  >
    <p
      className="text"
    >
      tell the cashier your name
    </p>
  </div>
  <div
    className="itemWrapper"
    key="Proceed to the online order lane"
  >
    <p
      className="text"
    >
      Proceed to the online order lane
    </p>
  </div>
</div>
`;

exports[`PickupInstructions should render PickupInstructions without props 1`] = `
<div
  className="container"
/>
`;
